{
  "assignees": [
    {
      "id": "ahFkZXZ-dHJhaW5pbmctZ3JpZHJFCxIVQXNzaWduZWVDb25maWd1cmF0aW9uIhVBc3NpZ25lZUNvbmZpZ3VyYXRpb24MCxIIQXNzaWduZWUYgICAgICA0AsM",
      "key": "$$unassigned-angular",
      "name": "(Unassigned Angular)",
      "email": "",
      "groups": null,
      "hidden": false
    },
    {
      "id": "ahFkZXZ-dHJhaW5pbmctZ3JpZHJFCxIVQXNzaWduZWVDb25maWd1cmF0aW9uIhVBc3NpZ25lZUNvbmZpZ3VyYXRpb24MCxIIQXNzaWduZWUYgICAgICAsAgM",
      "key": "$$unassigned-jira",
      "name": "(Unassigned JIRA)",
      "email": "",
      "groups": null,
      "hidden": false
    },
    {
      "id": "ahFkZXZ-dHJhaW5pbmctZ3JpZHJFCxIVQXNzaWduZWVDb25maWd1cmF0aW9uIhVBc3NpZ25lZUNvbmZpZ3VyYXRpb24MCxIIQXNzaWduZWUYgICAgICA0AkM",
      "key": "ally.nissen",
      "name": "",
      "email": "",
      "groups": null,
      "hidden": true
    },
    {
      "id": "ahFkZXZ-dHJhaW5pbmctZ3JpZHJFCxIVQXNzaWduZWVDb25maWd1cmF0aW9uIhVBc3NpZ25lZUNvbmZpZ3VyYXRpb24MCxIIQXNzaWduZWUYgICAgICAkAgM",
      "key": "bill.odom",
      "name": "",
      "email": "",
      "groups": [
        "ahFkZXZ-dHJhaW5pbmctZ3JpZHJKCxIVQXNzaWduZWVDb25maWd1cmF0aW9uIhVBc3NpZ25lZUNvbmZpZ3VyYXRpb24MCxINQXNzaWduZWVHcm91cBiAgICAgIDACAw"
      ],
      "hidden": false
    },
    {
      "id": "ahFkZXZ-dHJhaW5pbmctZ3JpZHJFCxIVQXNzaWduZWVDb25maWd1cmF0aW9uIhVBc3NpZ25lZUNvbmZpZ3VyYXRpb24MCxIIQXNzaWduZWUYgICAgICA4AsM",
      "key": "cory.rylan",
      "name": "",
      "email": "",
      "groups": [
        "ahFkZXZ-dHJhaW5pbmctZ3JpZHJKCxIVQXNzaWduZWVDb25maWd1cmF0aW9uIhVBc3NpZ25lZUNvbmZpZ3VyYXRpb24MCxINQXNzaWduZWVHcm91cBiAgICAgIDACAw"
      ],
      "hidden": false
    },
    {
      "id": "ahFkZXZ-dHJhaW5pbmctZ3JpZHJFCxIVQXNzaWduZWVDb25maWd1cmF0aW9uIhVBc3NpZ25lZUNvbmZpZ3VyYXRpb24MCxIIQXNzaWduZWUYgICAgICA4AkM",
      "key": "david.moore",
      "name": "",
      "email": "",
      "groups": [
        "ahFkZXZ-dHJhaW5pbmctZ3JpZHJKCxIVQXNzaWduZWVDb25maWd1cmF0aW9uIhVBc3NpZ25lZUNvbmZpZ3VyYXRpb24MCxINQXNzaWduZWVHcm91cBiAgICAgIDACAw"
      ],
      "hidden": false
    },
    {
      "id": "ahFkZXZ-dHJhaW5pbmctZ3JpZHJFCxIVQXNzaWduZWVDb25maWd1cmF0aW9uIhVBc3NpZ25lZUNvbmZpZ3VyYXRpb24MCxIIQXNzaWduZWUYgICAgICAoAgM",
      "key": "jack.balbes",
      "name": "",
      "email": "",
      "groups": [
        "ahFkZXZ-dHJhaW5pbmctZ3JpZHJKCxIVQXNzaWduZWVDb25maWd1cmF0aW9uIhVBc3NpZ25lZUNvbmZpZ3VyYXRpb24MCxINQXNzaWduZWVHcm91cBiAgICAgICACww"
      ],
      "hidden": false
    },
    {
      "id": "ahFkZXZ-dHJhaW5pbmctZ3JpZHJFCxIVQXNzaWduZWVDb25maWd1cmF0aW9uIhVBc3NpZ25lZUNvbmZpZ3VyYXRpb24MCxIIQXNzaWduZWUYgICAgICAoAoM",
      "key": "john.baur",
      "name": "",
      "email": "",
      "groups": [
        "ahFkZXZ-dHJhaW5pbmctZ3JpZHJKCxIVQXNzaWduZWVDb25maWd1cmF0aW9uIhVBc3NpZ25lZUNvbmZpZ3VyYXRpb24MCxINQXNzaWduZWVHcm91cBiAgICAgICACww"
      ],
      "hidden": false
    },
    {
      "id": "ahFkZXZ-dHJhaW5pbmctZ3JpZHJFCxIVQXNzaWduZWVDb25maWd1cmF0aW9uIhVBc3NpZ25lZUNvbmZpZ3VyYXRpb24MCxIIQXNzaWduZWUYgICAgICAkAoM",
      "key": "joshuagodi",
      "name": "",
      "email": "",
      "groups": [
        "ahFkZXZ-dHJhaW5pbmctZ3JpZHJKCxIVQXNzaWduZWVDb25maWd1cmF0aW9uIhVBc3NpZ25lZUNvbmZpZ3VyYXRpb24MCxINQXNzaWduZWVHcm91cBiAgICAgIDACAw"
      ],
      "hidden": false
    },
    {
      "id": "ahFkZXZ-dHJhaW5pbmctZ3JpZHJFCxIVQXNzaWduZWVDb25maWd1cmF0aW9uIhVBc3NpZ25lZUNvbmZpZ3VyYXRpb24MCxIIQXNzaWduZWUYgICAgICAoAsM",
      "key": "kyle.cordes",
      "name": "",
      "email": "",
      "groups": [
        "ahFkZXZ-dHJhaW5pbmctZ3JpZHJKCxIVQXNzaWduZWVDb25maWd1cmF0aW9uIhVBc3NpZ25lZUNvbmZpZ3VyYXRpb24MCxINQXNzaWduZWVHcm91cBiAgICAgICACww"
      ],
      "hidden": false
    },
    {
      "id": "ahFkZXZ-dHJhaW5pbmctZ3JpZHJFCxIVQXNzaWduZWVDb25maWd1cmF0aW9uIhVBc3NpZ25lZUNvbmZpZ3VyYXRpb24MCxIIQXNzaWduZWUYgICAgICAkAkM",
      "key": "lynn.mcneil",
      "name": "",
      "email": "",
      "groups": [
        "ahFkZXZ-dHJhaW5pbmctZ3JpZHJKCxIVQXNzaWduZWVDb25maWd1cmF0aW9uIhVBc3NpZ25lZUNvbmZpZ3VyYXRpb24MCxINQXNzaWduZWVHcm91cBiAgICAgIDACgw"
      ],
      "hidden": false
    },
    {
      "id": "ahFkZXZ-dHJhaW5pbmctZ3JpZHJFCxIVQXNzaWduZWVDb25maWd1cmF0aW9uIhVBc3NpZ25lZUNvbmZpZ3VyYXRpb24MCxIIQXNzaWduZWUYgICAgICA4AgM",
      "key": "maneesh.tewani",
      "name": "",
      "email": "",
      "groups": [
        "ahFkZXZ-dHJhaW5pbmctZ3JpZHJKCxIVQXNzaWduZWVDb25maWd1cmF0aW9uIhVBc3NpZ25lZUNvbmZpZ3VyYXRpb24MCxINQXNzaWduZWVHcm91cBiAgICAgICACww"
      ],
      "hidden": false
    },
    {
      "id": "ahFkZXZ-dHJhaW5pbmctZ3JpZHJFCxIVQXNzaWduZWVDb25maWd1cmF0aW9uIhVBc3NpZ25lZUNvbmZpZ3VyYXRpb24MCxIIQXNzaWduZWUYgICAgICAkAsM",
      "key": "michael.mcneil",
      "name": "",
      "email": "",
      "groups": [
        "ahFkZXZ-dHJhaW5pbmctZ3JpZHJKCxIVQXNzaWduZWVDb25maWd1cmF0aW9uIhVBc3NpZ25lZUNvbmZpZ3VyYXRpb24MCxINQXNzaWduZWVHcm91cBiAgICAgIDACgw"
      ],
      "hidden": false
    },
    {
      "id": "ahFkZXZ-dHJhaW5pbmctZ3JpZHJFCxIVQXNzaWduZWVDb25maWd1cmF0aW9uIhVBc3NpZ25lZUNvbmZpZ3VyYXRpb24MCxIIQXNzaWduZWUYgICAgICAoAkM",
      "key": "paul.spears",
      "name": "",
      "email": "",
      "groups": [
        "ahFkZXZ-dHJhaW5pbmctZ3JpZHJKCxIVQXNzaWduZWVDb25maWd1cmF0aW9uIhVBc3NpZ25lZUNvbmZpZ3VyYXRpb24MCxINQXNzaWduZWVHcm91cBiAgICAgICACww"
      ],
      "hidden": false
    },
    {
      "id": "ahFkZXZ-dHJhaW5pbmctZ3JpZHJFCxIVQXNzaWduZWVDb25maWd1cmF0aW9uIhVBc3NpZ25lZUNvbmZpZ3VyYXRpb24MCxIIQXNzaWduZWUYgICAgICA4AoM",
      "key": "rachel.noccioli",
      "name": "",
      "email": "",
      "groups": [
        "ahFkZXZ-dHJhaW5pbmctZ3JpZHJKCxIVQXNzaWduZWVDb25maWd1cmF0aW9uIhVBc3NpZ25lZUNvbmZpZ3VyYXRpb24MCxINQXNzaWduZWVHcm91cBiAgICAgICACww"
      ],
      "hidden": false
    },
    {
      "id": "ahFkZXZ-dHJhaW5pbmctZ3JpZHJFCxIVQXNzaWduZWVDb25maWd1cmF0aW9uIhVBc3NpZ25lZUNvbmZpZ3VyYXRpb24MCxIIQXNzaWduZWUYgICAgICA0AgM",
      "key": "robert.anthony",
      "name": "",
      "email": "",
      "groups": [
        "ahFkZXZ-dHJhaW5pbmctZ3JpZHJKCxIVQXNzaWduZWVDb25maWd1cmF0aW9uIhVBc3NpZ25lZUNvbmZpZ3VyYXRpb24MCxINQXNzaWduZWVHcm91cBiAgICAgIDACQw"
      ],
      "hidden": false
    },
    {
      "id": "ahFkZXZ-dHJhaW5pbmctZ3JpZHJFCxIVQXNzaWduZWVDb25maWd1cmF0aW9uIhVBc3NpZ25lZUNvbmZpZ3VyYXRpb24MCxIIQXNzaWduZWUYgICAgICA0AoM",
      "key": "steve.terelmes",
      "name": "",
      "email": "",
      "groups": [
        "ahFkZXZ-dHJhaW5pbmctZ3JpZHJKCxIVQXNzaWduZWVDb25maWd1cmF0aW9uIhVBc3NpZ25lZUNvbmZpZ3VyYXRpb24MCxINQXNzaWduZWVHcm91cBiAgICAgIDACQw"
      ],
      "hidden": false
    }
  ],
  "groups": [
    {
      "id": "ahFkZXZ-dHJhaW5pbmctZ3JpZHJKCxIVQXNzaWduZWVDb25maWd1cmF0aW9uIhVBc3NpZ25lZUNvbmZpZ3VyYXRpb24MCxINQXNzaWduZWVHcm91cBiAgICAgICACQw",
      "name": "First",
      "sortOrder": 0
    },
    {
      "id": "ahFkZXZ-dHJhaW5pbmctZ3JpZHJKCxIVQXNzaWduZWVDb25maWd1cmF0aW9uIhVBc3NpZ25lZUNvbmZpZ3VyYXRpb24MCxINQXNzaWduZWVHcm91cBiAgICAgICACww",
      "name": "Angular (Internal)",
      "sortOrder": 1
    },
    {
      "id": "ahFkZXZ-dHJhaW5pbmctZ3JpZHJKCxIVQXNzaWduZWVDb25maWd1cmF0aW9uIhVBc3NpZ25lZUNvbmZpZ3VyYXRpb24MCxINQXNzaWduZWVHcm91cBiAgICAgIDACAw",
      "name": "Angular (External)",
      "sortOrder": 2
    },
    {
      "id": "ahFkZXZ-dHJhaW5pbmctZ3JpZHJKCxIVQXNzaWduZWVDb25maWd1cmF0aW9uIhVBc3NpZ25lZUNvbmZpZ3VyYXRpb24MCxINQXNzaWduZWVHcm91cBiAgICAgIDACgw",
      "name": "JIRA (Internal)",
      "sortOrder": 3
    },
    {
      "id": "ahFkZXZ-dHJhaW5pbmctZ3JpZHJKCxIVQXNzaWduZWVDb25maWd1cmF0aW9uIhVBc3NpZ25lZUNvbmZpZ3VyYXRpb24MCxINQXNzaWduZWVHcm91cBiAgICAgIDACQw",
      "name": "JIRA (External)",
      "sortOrder": 4
    },
    {
      "id": "ahFkZXZ-dHJhaW5pbmctZ3JpZHJKCxIVQXNzaWduZWVDb25maWd1cmF0aW9uIhVBc3NpZ25lZUNvbmZpZ3VyYXRpb24MCxINQXNzaWduZWVHcm91cBiAgICAgIDACww",
      "name": "Last",
      "sortOrder": 5
    }
  ]
}
