{
  "User": {
    "Email": "trainer1@oasisdigital.com",
    "AuthDomain": "",
    "Admin": true,
    "ID": "120816924725135118180",
    "ClientID": "",
    "FederatedIdentity": "",
    "FederatedProvider": ""
  },
  "Rights": {
    "SeeOwnClasses": true,
    "SeeAllClasses": false,
    "EnterNotes": false,
    "SeeFullHistory": false,
    "Admin": false
  }
}
